Web Mapping and Analysis - 2 Web architecture
…
Users can request multiple variables at a time, and set custom names with a named vector

Searching for variables Getting variables from the US American Community Survey (ACS) 5-Year Data (2016-2020) requires knowing the variable ID - and there are thousands of these IDs across the different files. To rapidly search for variables, use the load_variables() function. The function takes two required arguments: the year of the Census or endyear of the ACS sample, and the dataset name, which varies in availability by year. For the ACS, use either “acs1” or “acs5” for the ACS detailed tables, and append /profile for the Data Profile and /subject for the Subject Tables. To browse these variables, assign the result of this function to a variable and use the View function in RStudio. An optional argument cache = TRUE will cache the dataset on your computer for future use.

view_vars <- load_variables(2020, "acs5", cache = TRUE)

view(view_vars)

EXERCISE - In your pairs explore some of the different variables available in the 5-Year ACS (2016-2020). Make a note of 3 variables you would be interested in exploring. The ACS2 variables page might also help.

income <- get_acs(geography = "state", table = "B19001") #getting income data by state
income

# A tibble: 884 × 5
   GEOID NAME    variable   estimate   moe
   <chr> <chr>   <chr>         <dbl> <dbl>
 1 01    Alabama B19001_001  1888504  5749
 2 01    Alabama B19001_002   153635  2979
 3 01    Alabama B19001_003   105415  2397
 4 01    Alabama B19001_004   106327  2522
 5 01    Alabama B19001_005   100073  2674
 6 01    Alabama B19001_006   100569  3023
 7 01    Alabama B19001_007    96815  2745
 8 01    Alabama B19001_008    87120  2491
 9 01    Alabama B19001_009    86181  2124
10 01    Alabama B19001_010    75721  2512
# … with 874 more rows

EXERCISE - 1) What is a tibble? 2) Discuss the format of the data obtained with your partner and then use the function get_acs to explore the 3 variables you discussed in the previous exercise.

You can also get “wide” census data:

inc_wide <- get_acs(geography = "state", table = "B19001", output = "wide")
inc_wide

# A tibble: 52 × 36
   GEOID NAME    B1900…¹ B1900…² B1900…³ B1900…⁴ B1900…⁵ B1900…⁶ B1900…⁷ B1900…⁸
   <chr> <chr>     <dbl>   <dbl>   <dbl>   <dbl>   <dbl>   <dbl>   <dbl>   <dbl>
 1 42    Pennsy…  5.11e6    8064  296733    3893  206216    3771  223380    3598
 2 06    Califo…  1.31e7   18542  614887    6699  507398    5286  435382    5251
 3 54    West V…  7.34e5    2810   62341    2318   43003    1497   45613    1648
 4 49    Utah     1.00e6    2384   36211    1536   27395    1378   28460    1507
 5 36    New Yo…  7.42e6   12559  471680    6161  340614    4703  303901    4201
 6 11    Distri…  2.88e5    1319   24083    1442   11315     809    8300     842
 7 02    Alaska   2.55e5    1326    9818     613    7476     651    8007     633
 8 12    Florida  7.93e6   23200  494959    6755  329848    4816  354967    5030
 9 45    South …  1.96e6    5748  144667    3397   93868    2582   94132    2606
10 38    North …  3.21e5    1737   18120     846   12664     795   12611     874
# … with 42 more rows, 26 more variables: B19001_005E <dbl>, B19001_005M <dbl>,
#   B19001_006E <dbl>, B19001_006M <dbl>, B19001_007E <dbl>, B19001_007M <dbl>,
#   B19001_008E <dbl>, B19001_008M <dbl>, B19001_009E <dbl>, B19001_009M <dbl>,
#   B19001_010E <dbl>, B19001_010M <dbl>, B19001_011E <dbl>, B19001_011M <dbl>,
#   B19001_012E <dbl>, B19001_012M <dbl>, B19001_013E <dbl>, B19001_013M <dbl>,
#   B19001_014E <dbl>, B19001_014M <dbl>, B19001_015E <dbl>, B19001_015M <dbl>,
#   B19001_016E <dbl>, B19001_016M <dbl>, B19001_017E <dbl>, …
…
